%YAML 1.1
%TAG !u! tag:unity3d.com,2011:
--- !u!114 &11400000
MonoBehaviour:
  m_ObjectHideFlags: 0
  m_CorrespondingSourceObject: {fileID: 0}
  m_PrefabInternal: {fileID: 0}
  m_GameObject: {fileID: 0}
  m_Enabled: 1
  m_EditorHideFlags: 0
  m_Script: {fileID: 11500000, guid: d031e95377d56b1408314b5bbbd4c389, type: 3}
  m_Name: "d\xEEner"
  m_EditorClassIdentifier: 
  native: dinner
  nativeNoSpace: 0
  foreign: "d\xEEner"
  foreignNoSpace: 0
  tooltipText: 
  learned: 0
  correctInARow: 0
  incorrectInARow: 0
